The Legacy of the European Post-Master in Urbanism at TU Delft: A Text Mining Approach
…
Figure 5

# A tibble: 205 × 3
      ID word             n
   <dbl> <chr>        <int>
 1     1 tib            239
 2     1 permeability   142
 3     1 test           133
 4     2 athens         191
 5     2 plan           167
 6     2 street         106
 7     3 plan           162
 8     3 famagusta      139
 9     3 community      114
10     4 dharavi        206
# ℹ 195 more rows
…
The tf-idf statistic shows words that are the most important to one document in a collection of documents (Silge and Robinson, 2017). In this case, it shows high values for the names of thesis locations that tend to be high-frequency thesis-specific words.

# A tibble: 343 × 6
# Groups:   ID [68]
      ID word                     n      tf   idf  tf_idf
   <dbl> <chr>                <int>   <dbl> <dbl>   <dbl>
 1     1 tib                    239 0.0199   3.53 0.0703 
 2     1 tyrol                   82 0.00684  4.22 0.0289 
 3     1 south_holland           74 0.00617  3.12 0.0193 
 4     1 tiroler                 36 0.00300  4.22 0.0127 
 5     1 perimeterarea           26 0.00217  4.22 0.00915
 6     2 athens                 191 0.0290   2.14 0.0620 
 7     2 panepistimiou           49 0.00743  3.12 0.0232 
 8     2 panepistimiou_street    39 0.00592  3.53 0.0209 
 9     2 chazapis                19 0.00288  4.22 0.0122 
10     2 antonis                 19 0.00288  3.53 0.0102 
# ℹ 333 more rows
…
